{
	"_id": "2526252",
	"_icon": "C:\\Users\\Jeremie\\Documents\\643App\\643App.WebProjects\\Default.WebProject\\app-icon.png",
	"_ssL": "C:\\Users\\Jeremie\\Documents\\643splash-landscape.png",
	"_ssP": "C:\\Users\\Jeremie\\Documents\\643splash.png",
	"_initialUxComponent": "Report",
	"_componentLastUpdated": "05/26/2017 10:01:46 87 am",
	"_ajaxUrl": "https://m643.643pest.org/",
	"_additionalFiles": "",
	"_userName": "pXLreTx1BbmqUO3jJ52Y5B+5JquSPiob",
	"_pw": "adzZrd4tTIrK6bjgtfm2jTNelix74Gcj",
	"_token": "",
	"timeout": {
		"phoneGapBuild": "<default>",
		"phoneGapBuildLogin": "<default>",
		"getAppIcon": "<default>"
	},
	"apperian": {
		"enableOptions": false,
		"loginName": "osLnGM4pUcQ=",
		"password": "c5JMXi9Y+Ko=",
		"serverURL": "https://easesvc.apperian.com/ease.interface.php"
	},
	"backupConfigFile": true,
	"useImageMagick": true,
	"indexHTMLMetaTags": "",
	"genAppZipFile": false,
	"zipFileLocation": "",
	"buildTarget": "Phonegap Build",
	"launchAppManager": true,
	"_sqlitedbdefined": false,
	"cliProjectFolder": "",
	"_ssA9": "",
	"_androidBuildFlag": true,
	"_iOSBuildFlag": true,
	"_windowsBuildFlag": false
}